dataviz_style_slides.knit
…
One possible solution to the "busy-ness":

<img src="img/dataviz_best_practices//popgrowth-vs-popsize-bw-1.png" width="600px" />

---

# Recall this dataset:

```r
msleep_subvore
```

```
## # A tibble: 46 × 5
##    name                       vore  awake brainwt  bodywt
##    <chr>                      <fct> <dbl>   <dbl>   <dbl>
##  1 Owl monkey                 omni    7   0.0155    0.48 
##  2 Greater short-tailed shrew omni    9.1 0.00029   0.019
##  3 Cow                        herbi  20   0.423   600    
##  4 Dog                        carni  13.9 0.07     14    
##  5 Roe deer                   herbi  21   0.0982   14.8  
##  6 Goat                       herbi  18.7 0.115    33.5  
##  7 Guinea pig                 herbi  14.6 0.0055    0.728
##  8 Chinchilla                 herbi  11.5 0.0064    0.42 
##  9 Star-nosed mole            omni   13.7 0.001     0.06 
## 10 African giant pouched rat  omni   15.7 0.0066    1    
## # … with 36 more rows
```
…
