dplyr_slides_part1.utf8
…
---

# Diving in with `filter()`

+ First argument: a data frame
+ Additional argument(s): **logical statements** (code that gives `TRUE` OR `FALSE`) about which rows you want to keep
+ *We can directly refer to columns within `dplyr` code*

```r
# Keep only Mississippi plants:
filter(plant, origin == "Mississippi")
```

```
## # A tibble: 42 x 5
##    plant_id origin      treatment  co2_conc co2_rate
##    <ord>    <fct>       <fct>         <dbl>    <dbl>
##  1 Mn1      Mississippi nonchilled       95     10.6
##  2 Mn1      Mississippi nonchilled      175     19.2
##  3 Mn1      Mississippi nonchilled      250     26.2
##  4 Mn1      Mississippi nonchilled      350     30  
##  5 Mn1      Mississippi nonchilled      500     30.9
##  6 Mn1      Mississippi nonchilled      675     32.4
##  7 Mn1      Mississippi nonchilled     1000     35.5
##  8 Mn2      Mississippi nonchilled       95     12  
##  9 Mn2      Mississippi nonchilled      175     22  
## 10 Mn2      Mississippi nonchilled      250     30.6
## # … with 32 more rows
```
…
```r
# Not preferred:
# filter(plant, origin == "Mississippi")

# Also not preferred:
# plant %>% filter(origin == "Mississippi")

# THIS!!!!
plant %>%
  filter(origin == "Mississippi")
```

```
## # A tibble: 42 x 5
##    plant_id origin      treatment  co2_conc co2_rate
##    <ord>    <fct>       <fct>         <dbl>    <dbl>
##  1 Mn1      Mississippi nonchilled       95     10.6
##  2 Mn1      Mississippi nonchilled      175     19.2
##  3 Mn1      Mississippi nonchilled      250     26.2
##  4 Mn1      Mississippi nonchilled      350     30  
##  5 Mn1      Mississippi nonchilled      500     30.9
##  6 Mn1      Mississippi nonchilled      675     32.4
##  7 Mn1      Mississippi nonchilled     1000     35.5
##  8 Mn2      Mississippi nonchilled       95     12  
##  9 Mn2      Mississippi nonchilled      175     22  
## 10 Mn2      Mississippi nonchilled      250     30.6
## # … with 32 more rows
```
…
---

# We can have multiple conditions in `filter()`

+ Using a comma in filter acts as "and" (`&`). 
+ Keep all rows where ALL conditions are `TRUE`

```r
plant %>%
  filter(origin == "Mississippi", treatment == "chilled")
```

```
## # A tibble: 21 x 5
##    plant_id origin      treatment co2_conc co2_rate
##    <ord>    <fct>       <fct>        <dbl>    <dbl>
##  1 Mc1      Mississippi chilled         95     10.5
##  2 Mc1      Mississippi chilled        175     14.9
##  3 Mc1      Mississippi chilled        250     18.1
##  4 Mc1      Mississippi chilled        350     18.9
##  5 Mc1      Mississippi chilled        500     19.5
##  6 Mc1      Mississippi chilled        675     22.2
##  7 Mc1      Mississippi chilled       1000     21.9
##  8 Mc2      Mississippi chilled         95      7.7
##  9 Mc2      Mississippi chilled        175     11.4
## 10 Mc2      Mississippi chilled        250     12.3
## # … with 11 more rows
```
…
```
## [1] FALSE
```

---

# Get rows with _either_ concentration using `%in%`

```r
plant %>%
  filter(co2_conc %in% c(95, 500))
```

```
## # A tibble: 24 x 5
##    plant_id origin treatment  co2_conc co2_rate
##    <ord>    <fct>  <fct>         <dbl>    <dbl>
##  1 Qn1      Quebec nonchilled       95     16  
##  2 Qn1      Quebec nonchilled      500     35.3
##  3 Qn2      Quebec nonchilled       95     13.6
##  4 Qn2      Quebec nonchilled      500     40.6
##  5 Qn3      Quebec nonchilled       95     16.2
##  6 Qn3      Quebec nonchilled      500     42.9
##  7 Qc1      Quebec chilled          95     14.2
##  8 Qc1      Quebec chilled         500     32.5
##  9 Qc2      Quebec chilled          95      9.3
## 10 Qc2      Quebec chilled         500     38.6
## # … with 14 more rows
```
…
---

# Have as many options as you want:

```r
plant %>%
  filter(plant_id %in% c("Qn1", "Qc1", "Mn1", "Mc1"))
```

```
## # A tibble: 28 x 5
##    plant_id origin treatment  co2_conc co2_rate
##    <ord>    <fct>  <fct>         <dbl>    <dbl>
##  1 Qn1      Quebec nonchilled       95     16  
##  2 Qn1      Quebec nonchilled      175     30.4
##  3 Qn1      Quebec nonchilled      250     34.8
##  4 Qn1      Quebec nonchilled      350     37.2
##  5 Qn1      Quebec nonchilled      500     35.3
##  6 Qn1      Quebec nonchilled      675     39.2
##  7 Qn1      Quebec nonchilled     1000     39.7
##  8 Qc1      Quebec chilled          95     14.2
##  9 Qc1      Quebec chilled         175     24.1
## 10 Qc1      Quebec chilled         250     30.3
## # … with 18 more rows
```
…
**Caution:** Be careful to use `%>%` and `+` in the right place. Using the wrong one in the wrong place is a common mistake!

---

# Removing, keeping, rearranging columns with `select()`

.pull-left[

```r
plant %>%
  select(plant_id, treatment)
```

```
## # A tibble: 84 x 2
##    plant_id treatment 
##    <ord>    <fct>     
##  1 Qn1      nonchilled
##  2 Qn1      nonchilled
##  3 Qn1      nonchilled
##  4 Qn1      nonchilled
##  5 Qn1      nonchilled
##  6 Qn1      nonchilled
##  7 Qn1      nonchilled
##  8 Qn2      nonchilled
##  9 Qn2      nonchilled
## 10 Qn2      nonchilled
## # … with 74 more rows
```
]
--
.pull-right[

```r
plant %>%
  select(-plant_id, -treatment)
```

```
## # A tibble: 84 x 3
##    origin co2_conc co2_rate
##    <fct>     <dbl>    <dbl>
##  1 Quebec       95     16  
##  2 Quebec      175     30.4
##  3 Quebec      250     34.8
##  4 Quebec      350     37.2
##  5 Quebec      500     35.3
##  6 Quebec      675     39.2
##  7 Quebec     1000     39.7
##  8 Quebec       95     13.6
##  9 Quebec      175     27.3
## 10 Quebec      250     37.1
## # … with 74 more rows
```
…
```
## # A tibble: 2 x 5
##   plant_id origin treatment  co2_conc co2_rate
##   <ord>    <fct>  <fct>         <dbl>    <dbl>
## 1 Qn1      Quebec nonchilled       95     16  
## 2 Qn1      Quebec nonchilled      175     30.4
```

```r
plant %>%
  select(co2_rate, everything())
```

```
## # A tibble: 84 x 5
##    co2_rate plant_id origin treatment  co2_conc
##       <dbl> <ord>    <fct>  <fct>         <dbl>
##  1     16   Qn1      Quebec nonchilled       95
##  2     30.4 Qn1      Quebec nonchilled      175
##  3     34.8 Qn1      Quebec nonchilled      250
##  4     37.2 Qn1      Quebec nonchilled      350
##  5     35.3 Qn1      Quebec nonchilled      500
##  6     39.2 Qn1      Quebec nonchilled      675
##  7     39.7 Qn1      Quebec nonchilled     1000
##  8     13.6 Qn2      Quebec nonchilled       95
##  9     27.3 Qn2      Quebec nonchilled      175
## 10     37.1 Qn2      Quebec nonchilled      250
## # … with 74 more rows
```

---

# Creating new columns with `mutate()`

```r
plant %>%
  mutate(the_number_5 = 5)
```

```
## # A tibble: 84 x 6
##    plant_id origin treatment  co2_conc co2_rate the_number_5
##    <ord>    <fct>  <fct>         <dbl>    <dbl>        <dbl>
##  1 Qn1      Quebec nonchilled       95     16              5
##  2 Qn1      Quebec nonchilled      175     30.4            5
##  3 Qn1      Quebec nonchilled      250     34.8            5
##  4 Qn1      Quebec nonchilled      350     37.2            5
##  5 Qn1      Quebec nonchilled      500     35.3            5
##  6 Qn1      Quebec nonchilled      675     39.2            5
##  7 Qn1      Quebec nonchilled     1000     39.7            5
##  8 Qn2      Quebec nonchilled       95     13.6            5
##  9 Qn2      Quebec nonchilled      175     27.3            5
## 10 Qn2      Quebec nonchilled      250     37.1            5
## # … with 74 more rows
```

---

# Creating new columns with `mutate()`

Again, we can directly reference existing columns: 

```r
plant %>%
  mutate(co2_rate_x100 = co2_rate * 100)
```

```
## # A tibble: 84 x 6
##    plant_id origin treatment  co2_conc co2_rate co2_rate_x100
##    <ord>    <fct>  <fct>         <dbl>    <dbl>         <dbl>
##  1 Qn1      Quebec nonchilled       95     16           1600 
##  2 Qn1      Quebec nonchilled      175     30.4         3040 
##  3 Qn1      Quebec nonchilled      250     34.8         3480.
##  4 Qn1      Quebec nonchilled      350     37.2         3720.
##  5 Qn1      Quebec nonchilled      500     35.3         3530.
##  6 Qn1      Quebec nonchilled      675     39.2         3920.
##  7 Qn1      Quebec nonchilled     1000     39.7         3970.
##  8 Qn2      Quebec nonchilled       95     13.6         1360 
##  9 Qn2      Quebec nonchilled      175     27.3         2730 
## 10 Qn2      Quebec nonchilled      250     37.1         3710 
## # … with 74 more rows
```
…
