dplyr_slides_part2.utf8
…
---

# First, we look at the data

.pull-left[

```r
diamonds
```

```
## # A tibble: 500 x 5
##    carat cut       color price     x
##    <dbl> <ord>     <ord> <int> <dbl>
##  1  0.23 Very Good E       402  4.01
##  2  0.72 Ideal     F      2879  5.76
##  3  1.11 Ideal     F      7823  6.62
##  4  1.01 Very Good D      4338  6.43
##  5  0.3  Ideal     G       684  4.31
##  6  0.23 Very Good E       485  4.02
##  7  1.51 Premium   H      9762  7.54
##  8  0.34 Premium   I       765  4.49
##  9  0.59 Ideal     E      1607  5.36
## 10  1.41 Ideal     G     11009  7.22
## # … with 490 more rows
```
…
> It is NOT AT ALL the same as `mutate()`!!

```r
diamonds %>%
  summarize(mean_price = mean(price))
## # A tibble: 1 x 1
##   mean_price
##        <dbl>
## 1      4124.
```

```r
diamonds %>%
  mutate(mean_price = mean(price))
## # A tibble: 500 x 6
##    carat cut       color price     x mean_price
##    <dbl> <ord>     <ord> <int> <dbl>      <dbl>
##  1  0.23 Very Good E       402  4.01      4124.
##  2  0.72 Ideal     F      2879  5.76      4124.
##  3  1.11 Ideal     F      7823  6.62      4124.
##  4  1.01 Very Good D      4338  6.43      4124.
##  5  0.3  Ideal     G       684  4.31      4124.
##  6  0.23 Very Good E       485  4.02      4124.
##  7  1.51 Premium   H      9762  7.54      4124.
##  8  0.34 Premium   I       765  4.49      4124.
##  9  0.59 Ideal     E      1607  5.36      4124.
## 10  1.41 Ideal     G     11009  7.22      4124.
## # … with 490 more rows
```
…
---

# More comparison with `mutate()`

> `sqrt()` is not a summary function! 

.pull-left[

```r
diamonds %>%
  mutate(price_sqrt = sqrt(price)) %>%
  # so we can see in the slides:
  select(price_sqrt, everything())
## # A tibble: 500 x 6
##    price_sqrt carat cut       color price     x
##         <dbl> <dbl> <ord>     <ord> <int> <dbl>
##  1       20.0  0.23 Very Good E       402  4.01
##  2       53.7  0.72 Ideal     F      2879  5.76
##  3       88.4  1.11 Ideal     F      7823  6.62
##  4       65.9  1.01 Very Good D      4338  6.43
##  5       26.2  0.3  Ideal     G       684  4.31
##  6       22.0  0.23 Very Good E       485  4.02
##  7       98.8  1.51 Premium   H      9762  7.54
##  8       27.7  0.34 Premium   I       765  4.49
##  9       40.1  0.59 Ideal     E      1607  5.36
## 10      105.   1.41 Ideal     G     11009  7.22
## # … with 490 more rows
```
]

.pull-right[

```r
diamonds %>%
  summarize(price_sqrt = sqrt(price))
## # A tibble: 500 x 1
##    price_sqrt
##         <dbl>
##  1       20.0
##  2       53.7
##  3       88.4
##  4       65.9
##  5       26.2
##  6       22.0
##  7       98.8
##  8       27.7
##  9       40.1
## 10      105. 
## # … with 490 more rows
```
…
```r
head(diamonds, 3) # show first three rows only, to fit on slides
## # A tibble: 3 x 5
##   carat cut       color price     x
##   <dbl> <ord>     <ord> <int> <dbl>
## 1  0.23 Very Good E       402  4.01
## 2  0.72 Ideal     F      2879  5.76
## 3  1.11 Ideal     F      7823  6.62
```

```r
diamonds %>%
* group_by(cut)
## # A tibble: 500 x 5
## # Groups:   cut [5]
##    carat cut       color price     x
##    <dbl> <ord>     <ord> <int> <dbl>
##  1  0.23 Very Good E       402  4.01
##  2  0.72 Ideal     F      2879  5.76
##  3  1.11 Ideal     F      7823  6.62
##  4  1.01 Very Good D      4338  6.43
##  5  0.3  Ideal     G       684  4.31
##  6  0.23 Very Good E       485  4.02
##  7  1.51 Premium   H      9762  7.54
##  8  0.34 Premium   I       765  4.49
##  9  0.59 Ideal     E      1607  5.36
## 10  1.41 Ideal     G     11009  7.22
## # … with 490 more rows
```
…
### Notice how `cut` is retained in the output - the grouping variable was used in the summary calculation.
---

# Working with grouped data

#### `cut` AND `color` are the **grouping variables**

```r
diamonds %>%
  group_by(cut, color) %>%
  # Perform calculation for each group separately
  summarize(mean_price = mean(price))
## `summarise()` regrouping output by 'cut' (override with `.groups` argument)
## # A tibble: 33 x 3
## # Groups:   cut [5]
##    cut   color mean_price
##    <ord> <ord>      <dbl>
##  1 Fair  D          6056.
##  2 Fair  G          5850 
##  3 Fair  H          3883.
##  4 Fair  I          2129 
##  5 Fair  J          5859 
##  6 Good  D          4818.
##  7 Good  E          3691.
##  8 Good  F          3275.
##  9 Good  G          4121.
## 10 Good  H          5024.
## # … with 23 more rows
```
…
---

# Don't ever forget to `ungroup()`

```r
diamonds %>%
  group_by(cut, color) %>%
  summarize(median_x = median(x)) %>%
* ungroup()
## # A tibble: 33 x 3
##    cut   color median_x
##    <ord> <ord>    <dbl>
##  1 Fair  D         6.27
##  2 Fair  G         6.20
##  3 Fair  H         6.35
##  4 Fair  I         6.05
##  5 Fair  J         7.43
##  6 Good  D         5.16
##  7 Good  E         5.47
##  8 Good  F         5.67
##  9 Good  G         6.28
## 10 Good  H         6.38
## # … with 23 more rows
```
…
```r
diamonds %>%
  count(cut, color)
```

```
## # A tibble: 33 x 3
##    cut   color     n
##    <ord> <ord> <int>
##  1 Fair  D         3
##  2 Fair  G         2
##  3 Fair  H         3
##  4 Fair  I         1
##  5 Fair  J         1
##  6 Good  D         8
##  7 Good  E        12
##  8 Good  F         9
##  9 Good  G         9
## 10 Good  H         6
## # … with 23 more rows
```
]

---

# We can use `count()` just like `tally()`

.pull-left[

```r
diamonds %>%
  count(cut, color)
```

```
## # A tibble: 33 x 3
##    cut   color     n
##    <ord> <ord> <int>
##  1 Fair  D         3
##  2 Fair  G         2
##  3 Fair  H         3
##  4 Fair  I         1
##  5 Fair  J         1
##  6 Good  D         8
##  7 Good  E        12
##  8 Good  F         9
##  9 Good  G         9
## 10 Good  H         6
## # … with 23 more rows
```
]

.pull-right[

```r
diamonds %>%
  count(cut, color, 
        name = "count_cut_color")
```

```
## # A tibble: 33 x 3
##    cut   color count_cut_color
##    <ord> <ord>           <int>
##  1 Fair  D                   3
##  2 Fair  G                   2
##  3 Fair  H                   3
##  4 Fair  I                   1
##  5 Fair  J                   1
##  6 Good  D                   8
##  7 Good  E                  12
##  8 Good  F                   9
##  9 Good  G                   9
## 10 Good  H                   6
## # … with 23 more rows
```
…
