linear_models_slides.utf8
…
```
## # A tibble: 1 x 2
##   r.squared   p.value
##       <dbl>     <dbl>
## 1     0.573 7.62e-212
```

```r
broom::tidy(fitted_model_world)
```

```
## # A tibble: 37 x 5
##    term                           estimate std.error statistic   p.value
##    <chr>                             <dbl>     <dbl>     <dbl>     <dbl>
##  1 (Intercept)                      2.54      0.143     17.8   1.23e- 63
##  2 flavor                           0.661     0.0187    35.3   2.92e-192
##  3 country_of_originBurundi        -0.0630    0.149     -0.424 6.72e-  1
##  4 country_of_originChina           0.0537    0.0553     0.972 3.31e-  1
##  5 country_of_originColombia        0.0844    0.0238     3.54  4.16e-  4
##  6 country_of_originCosta Rica      0.142     0.0344     4.13  3.81e-  5
##  7 country_of_originCote d?Ivoire   0.0809    0.210      0.386 7.00e-  1
##  8 country_of_originEcuador        -0.0137    0.122     -0.112 9.10e-  1
##  9 country_of_originEl Salvador     0.0683    0.0491     1.39  1.64e-  1
## 10 country_of_originEthiopia        0.0552    0.0372     1.48  1.38e-  1
## # … with 27 more rows
```
…
