logit_slides.utf8
…
---
## Make it fit better on slides

```r
penguins %>%
  rename(bill_len = bill_length_mm,
         bill_dep = bill_depth_mm,
         flipper = flipper_length_mm,
         mass    = body_mass_g) -> peng

peng
```

```
## # A tibble: 344 x 8
##    species island bill_len bill_dep flipper  mass sex  
##    <fct>   <fct>     <dbl>    <dbl>   <int> <int> <fct>
##  1 Adelie  Torge…     39.1     18.7     181  3750 male 
##  2 Adelie  Torge…     39.5     17.4     186  3800 fema…
##  3 Adelie  Torge…     40.3     18       195  3250 fema…
##  4 Adelie  Torge…     NA       NA        NA    NA <NA> 
##  5 Adelie  Torge…     36.7     19.3     193  3450 fema…
##  6 Adelie  Torge…     39.3     20.6     190  3650 male 
##  7 Adelie  Torge…     38.9     17.8     181  3625 fema…
##  8 Adelie  Torge…     39.2     19.6     195  4675 male 
##  9 Adelie  Torge…     34.1     18.1     193  3475 <NA> 
## 10 Adelie  Torge…     42       20.2     190  4250 <NA> 
## # … with 334 more rows, and 1 more variable:
## #   year <int>
```
…
## Make it fit better on slides
penguins%>%
  rename(bill_len = bill_length_mm,
         bill_dep = bill_depth_mm,
         flipper = flipper_length_mm,
         mass    = body_mass_g) %>%
  # appease the step() function gods
  drop_na()-> peng_nona

peng_nona
```

```
## # A tibble: 333 x 8
##    species island bill_len bill_dep flipper  mass sex  
##    <fct>   <fct>     <dbl>    <dbl>   <int> <int> <fct>
##  1 Adelie  Torge…     39.1     18.7     181  3750 male 
##  2 Adelie  Torge…     39.5     17.4     186  3800 fema…
##  3 Adelie  Torge…     40.3     18       195  3250 fema…
##  4 Adelie  Torge…     36.7     19.3     193  3450 fema…
##  5 Adelie  Torge…     39.3     20.6     190  3650 male 
##  6 Adelie  Torge…     38.9     17.8     181  3625 fema…
##  7 Adelie  Torge…     39.2     19.6     195  4675 male 
##  8 Adelie  Torge…     41.1     17.6     182  3200 fema…
##  9 Adelie  Torge…     38.6     21.2     191  3800 male 
## 10 Adelie  Torge…     34.6     21.1     198  4400 male 
## # … with 323 more rows, and 1 more variable:
## #   year <int>
```
…
### Step 1: Prepare the data

```r
## To appease the R gods, and make your life easier, ...
## re-code the response as arbitrary success = 1, failure = 0. 
peng_nona %>%
  # change `sex` to be 0, 1
  mutate(sex = if_else(sex == "female", 1, 0)) -> peng_nona_sex01

peng_nona_sex01
```

```
## # A tibble: 333 x 8
##    species island bill_len bill_dep flipper  mass   sex
##    <fct>   <fct>     <dbl>    <dbl>   <int> <int> <dbl>
##  1 Adelie  Torge…     39.1     18.7     181  3750     0
##  2 Adelie  Torge…     39.5     17.4     186  3800     1
##  3 Adelie  Torge…     40.3     18       195  3250     1
##  4 Adelie  Torge…     36.7     19.3     193  3450     1
##  5 Adelie  Torge…     39.3     20.6     190  3650     0
##  6 Adelie  Torge…     38.9     17.8     181  3625     1
##  7 Adelie  Torge…     39.2     19.6     195  4675     0
##  8 Adelie  Torge…     41.1     17.6     182  3200     1
##  9 Adelie  Torge…     38.6     21.2     191  3800     0
## 10 Adelie  Torge…     34.6     21.1     198  4400     0
## # … with 323 more rows, and 1 more variable:
## #   year <int>
```
…
---

## Visualizing the model: Prepare the data

```r
tibble(x = fit$linear.predictors, 
       y = fit$fitted.values, 
       sex = peng_nona$sex) -> fit_tibble

fit_tibble
```

```
## # A tibble: 333 x 3
##         x        y sex   
##     <dbl>    <dbl> <fct> 
##  1 -1.24  0.224    male  
##  2  0.347 0.586    female
##  3  2.14  0.895    female
##  4  1.05  0.740    female
##  5 -3.89  0.0200   male  
##  6  1.11  0.751    female
##  7 -8.30  0.000249 male  
##  8  2.60  0.931    female
##  9 -5.34  0.00477  male  
## 10 -6.27  0.00188  male  
## # … with 323 more rows
```
…
## Caculating performance measures

+ Requires a *threshold* to call female/male model outcomes. 
+ For an example, let's say >=0.75 is female (arbitrary "success"). <0.75 is male (arbitrary "failure")
+ Accuracy: `\(\frac{TP + TN}{TP + TN + FP + FN}\)`

```r
threshold <- 0.75
fit_tibble %>% 
* rename(truth = sex) %>%
  mutate(pred = if_else(y >= threshold, "female", "male")) 
```

```
## # A tibble: 333 x 4
##         x        y truth  pred  
##     <dbl>    <dbl> <fct>  <chr> 
##  1 -1.24  0.224    male   male  
##  2  0.347 0.586    female male  
##  3  2.14  0.895    female female
##  4  1.05  0.740    female male  
##  5 -3.89  0.0200   male   male  
##  6  1.11  0.751    female female
##  7 -8.30  0.000249 male   male  
##  8  2.60  0.931    female female
##  9 -5.34  0.00477  male   male  
## 10 -6.27  0.00188  male   male  
## # … with 323 more rows
```
…
```r
threshold <- 0.75
fit_tibble %>% 
  rename(truth = sex) %>% 
  mutate(pred = if_else(y >= threshold, "female", "male")) %>%
  mutate(classif = case_when(truth == "female" & pred == "female" ~ "TP", 
                             truth == "female" & pred == "male" ~ "FN",
                             truth == "male"    & pred == "female" ~ "TN",
                             truth == "male"    & pred == "male" ~ "FP")) -> confusion

confusion
```

```
## # A tibble: 333 x 5
##         x        y truth  pred   classif
##     <dbl>    <dbl> <fct>  <chr>  <chr>  
##  1 -1.24  0.224    male   male   FP     
##  2  0.347 0.586    female male   FN     
##  3  2.14  0.895    female female TP     
##  4  1.05  0.740    female male   FN     
##  5 -3.89  0.0200   male   male   FP     
##  6  1.11  0.751    female female TP     
##  7 -8.30  0.000249 male   male   FP     
##  8  2.60  0.931    female female TP     
##  9 -5.34  0.00477  male   male   FP     
## 10 -6.27  0.00188  male   male   FP     
## # … with 323 more rows
```
…
