MOMv3.3.txt is really good for:
- recoding NA (they are -999)
- reference is a string, and it's absolutely vile. commas all around, some periods instead of commas, etc.
    + they'd have to design a regex to match it and then separate_rows with tidyr eeeeeeekkkkkk
> dat
# A tibble: 5,731 x 9
   continent status order family genus species log_body_mass adult_body_mass
   <chr>     <chr>  <chr> <chr>  <chr> <chr>           <dbl>           <dbl>
 1 AF        extant Arti… Bovid… Addax nasoma…          4.85          70000.
 2 AF        extant Arti… Bovid… Aepy… melamp…          4.72          52500.
 3 AF        extant Arti… Bovid… Alce… busela…          5.23         171002.
 4 AF        extant Arti… Bovid… Ammo… clarkei          4.45          28050.
 5 AF        extant Arti… Bovid… Ammo… lervia           4.68          48000 
 6 AF        extant Arti… Bovid… Anti… marsup…          4.59          39050.
 7 AF        extin… Arti… Bovid… Anti… bondi            4.53          34000 
 8 AF        extin… Arti… Bovid… Anti… austra…          4.6           40000 
 9 AF        extant Arti… Bovid… Bos   taurus           5.95         900000 
10 AF        extant Arti… Bovid… Capra walie            5            100000 
# … with 5,721 more rows, and 1 more variable: reference <chr>
…
