Introduction to logistic regression
…
---

## An option with `broom`, if you dare!

+ The `.fitted` column is the x-axis in logit, need to transform directly for y

```r
broom::augment(selected_fit) %>% 
  select(outcome, .fitted) %>%
  rename(linear_predictors = .fitted) %>%
  mutate(probabilities     = 1/(1 + exp(-1 * linear_predictors)) )
## # A tibble: 683 x 3
##    outcome linear_predictors probabilities
##      <dbl>             <dbl>         <dbl>
##  1       0             -4.09       0.0164 
##  2       0              2.03       0.884  
##  3       0             -4.77       0.00838
##  4       0              1.38       0.799  
##  5       0             -3.94       0.0190 
##  6       1             10.6        1.00   
##  7       0             -2.73       0.0609 
##  8       0             -5.35       0.00472
##  9       0             -4.49       0.0110 
## 10       0             -5.09       0.00612
## # … with 673 more rows
```
…
---

## Caculating performance measures

+ Requires a *threshold* to call malignant/benign outcomes. 
+ For an example, let's say >=0.75 is malignant (success). <0.75 is benign (failure)
+ Accuracy: `\(\frac{TP + TN}{TP + TN + FP + FN}\)`

```r
tibble(x = selected_fit$linear.predictors, 
       y = selected_fit$fitted.values, 
       outcome = biopsy$outcome) -> model_tibble

model_tibble
## # A tibble: 683 x 3
##        x       y outcome  
##    <dbl>   <dbl> <chr>    
##  1 -4.09 0.0164  benign   
##  2  2.03 0.884   benign   
##  3 -4.77 0.00838 benign   
##  4  1.38 0.799   benign   
##  5 -3.94 0.0190  benign   
##  6 10.6  1.00    malignant
##  7 -2.73 0.0609  benign   
##  8 -5.35 0.00472 benign   
##  9 -4.49 0.0110  benign   
## 10 -5.09 0.00612 benign   
## # … with 673 more rows
```

---
`\(Accuracy = \frac{TP + TN}{TP + TN + FP + FN}\)`

```r
threshold <- 0.75
model_tibble %>% 
* rename(truth = outcome) %>%
  mutate(pred = if_else(y >= threshold, "pos", "neg")) 
## # A tibble: 683 x 4
##        x       y truth     pred 
##    <dbl>   <dbl> <chr>     <chr>
##  1 -4.09 0.0164  benign    neg  
##  2  2.03 0.884   benign    pos  
##  3 -4.77 0.00838 benign    neg  
##  4  1.38 0.799   benign    pos  
##  5 -3.94 0.0190  benign    neg  
##  6 10.6  1.00    malignant pos  
##  7 -2.73 0.0609  benign    neg  
##  8 -5.35 0.00472 benign    neg  
##  9 -4.49 0.0110  benign    neg  
## 10 -5.09 0.00612 benign    neg  
## # … with 673 more rows
```

---
`\(Accuracy = \frac{TP + TN}{TP + TN + FP + FN}\)`

```r
threshold <- 0.75
model_tibble %>% 
  rename(truth = outcome) %>% 
* mutate(pred = if_else(y >= threshold, "pos", "neg"))
## # A tibble: 683 x 4
##        x       y truth     pred 
##    <dbl>   <dbl> <chr>     <chr>
##  1 -4.09 0.0164  benign    neg  
##  2  2.03 0.884   benign    pos  
##  3 -4.77 0.00838 benign    neg  
##  4  1.38 0.799   benign    pos  
##  5 -3.94 0.0190  benign    neg  
##  6 10.6  1.00    malignant pos  
##  7 -2.73 0.0609  benign    neg  
##  8 -5.35 0.00472 benign    neg  
##  9 -4.49 0.0110  benign    neg  
## 10 -5.09 0.00612 benign    neg  
## # … with 673 more rows
```
---
`\(Accuracy = \frac{TP + TN}{TP + TN + FP + FN}\)`

```r
threshold <- 0.75
model_tibble %>% 
  rename(truth = outcome) %>% 
  mutate(pred = if_else(y >= threshold, "pos", "neg")) %>%
  mutate(classif = case_when(truth == "malignant" & pred == "pos" ~ "TP", 
                             truth == "malignant" & pred == "neg" ~ "FN",
                             truth == "benign"    & pred == "neg" ~ "TN",
                             truth == "benign"    & pred == "pos" ~ "FP")) -> model_classif

model_classif
## # A tibble: 683 x 5
##        x       y truth     pred  classif
##    <dbl>   <dbl> <chr>     <chr> <chr>  
##  1 -4.09 0.0164  benign    neg   TN     
##  2  2.03 0.884   benign    pos   FP     
##  3 -4.77 0.00838 benign    neg   TN     
##  4  1.38 0.799   benign    pos   FP     
##  5 -3.94 0.0190  benign    neg   TN     
##  6 10.6  1.00    malignant pos   TP     
##  7 -2.73 0.0609  benign    neg   TN     
##  8 -5.35 0.00472 benign    neg   TN     
##  9 -4.49 0.0110  benign    neg   TN     
## 10 -5.09 0.00612 benign    neg   TN     
## # … with 673 more rows
```
…
