Introduction to dimension reduction with PCA
…
---

## PCA output: The principle components (PCs)

```r
wine_pca$x %>% as_tibble() -> wine_pca_components
wine_pca_components
## # A tibble: 178 x 8
##      PC1    PC2    PC3      PC4       PC5    PC6     PC7     PC8
##    <dbl>  <dbl>  <dbl>    <dbl>     <dbl>  <dbl>   <dbl>   <dbl>
##  1 -2.29  1.27  -0.205 -0.904   -0.272    -0.620 -0.558  -0.171 
##  2 -1.24 -0.718 -0.722 -0.00793  0.0920   -0.137 -0.0389 -0.0863
##  3 -1.44  0.612  0.725  0.515    0.323     0.468  0.237  -0.286 
##  4 -3.27  1.70  -0.451  0.598    0.000541 -0.341  0.416   0.543 
##  5 -1.15  1.22   1.80  -0.297    0.308    -0.216 -0.294   0.112 
##  6 -2.37  1.29  -0.183  0.477   -0.390    -0.665 -0.0161 -0.0184
##  7 -1.13  0.717 -0.608  0.653   -0.215     0.282 -1.07    0.0211
##  8 -1.49  1.37   0.345 -0.704   -0.0202   -0.223 -0.794   0.0756
##  9 -1.82  0.451 -1.47   0.840   -0.274    -0.425 -1.13   -0.0568
## 10 -2.12  0.363 -1.14   0.578   -0.447     0.350  0.252  -0.0474
## # … with 168 more rows
```
…
