Introduction to clustering analysis
…
## Which row is in which cluster?

```r
wine_k3$cluster
##   [1] 2 3 3 3 2 3 3 2 3 3 3 1 1 1 3 3 2 2 3 2 2 3 3 1 3 2 1 1 3 3 3 3 3 2 3 3 3
##  [38] 3 3 2 2 1 3 3 3 3 3 3 3 3 1 1 3 2 2 2 2 3 3 1 3 3 1 1 3 3 1 1 3 2 3 1 1 2
##  [75] 3 3 1 3 2 3 1 1 1 1 1 3 1 1 1 1 1 1 1 1 3 2 2 1 1 1 3 1 3 1 1 1 1 1 1 1 3
## [112] 1 3 1 1 1 1 3 1 1 3 2 3 1 1 1 1 1 1 1 2 3 3 3 1 1 1 3 1 3 3 1 3 1 3 3 1 1
## [149] 1 3 2 3 2 3 3 1 1 3 3 1 1 3 3 3 1 1 3 1 3 3 3 1 1 3 3 2 2 3

wine %>% 
  mutate(cluster_k3 = factor(wine_k3$cluster)) -> wine_with_clusters
wine_with_clusters %>%select(Alcohol, Cultivar, cluster_k3)
## # A tibble: 178 x 3
##    Alcohol Cultivar cluster_k3
##      <dbl> <chr>    <fct>     
##  1    14.2 A        2         
##  2    13.2 A        3         
##  3    13.2 A        3         
##  4    14.4 A        3         
##  5    13.2 A        2         
##  6    14.2 A        3         
##  7    14.4 A        3         
##  8    14.1 A        2         
##  9    14.8 A        3         
## 10    13.9 A        3         
## # … with 168 more rows
```
…
---

```r
names(wine_with_clusters)
##  [1] "Cultivar"       "Alcohol"        "MalicAcid"      "Ash"           
##  [5] "Magnesium"      "TotalPhenol"    "Flavanoids"     "NonflavPhenols"
##  [9] "Color"          "cluster_k3"
wine_with_clusters %>%
  pivot_longer(Alcohol:Color, names_to = "quantity", values_to = "value") 
## # A tibble: 1,424 x 4
##    Cultivar cluster_k3 quantity        value
##    <chr>    <fct>      <chr>           <dbl>
##  1 A        2          Alcohol         14.2 
##  2 A        2          MalicAcid        1.71
##  3 A        2          Ash              2.43
##  4 A        2          Magnesium      127   
##  5 A        2          TotalPhenol      2.8 
##  6 A        2          Flavanoids       3.06
##  7 A        2          NonflavPhenols   0.28
##  8 A        2          Color            5.64
##  9 A        3          Alcohol         13.2 
## 10 A        3          MalicAcid        1.78
## # … with 1,414 more rows
```
…
