Homework #6: Due 3/9/21 to Canvas by 1 pm
…
Hint: Do not worry about any potential NAs in your answers. Let’s consider those as countries/species for now.

Hint 2: Did you notice that without any duplicated rows is italicized?

Find all the coffees grown in the USA. In this dataset, USA locations are represented as one of the following in country_of_origin: "United States", "United States (Hawaii)" , "United States (Puerto Rico)". Your code should yield a tibble containing all columns from the original dataset, but subsetted to rows where the country_of_origin is one of those USA options.

Hint: You cannot use the == operator in your filter() command, since we are looking for one of three conditions, not all at once!. You therefore need to use the %in% operator to filter for rows where the country_of_origin is %in% an array containing those options.

An awesome dplyr function that we haven’t seen yet is count(): This function counts the number of rows for a given variable. For example, the code below counts how many coffees (rows) from each country. You will want to run this code to clearly examine and engage with the count() function and its output!!

coffee_ratings %>%
  # counts: how many rows are there for each country_of_origin
  count(country_of_origin) 

## # A tibble: 37 x 2
##    country_of_origin     n
##    <chr>             <int>
##  1 Brazil              132
##  2 Burundi               2
##  3 China                16
##  4 Colombia            183
##  5 Costa Rica           51
##  6 Cote d?Ivoire         1
##  7 Ecuador               3
##  8 El Salvador          21
##  9 Ethiopia             44
## 10 Guatemala           181
## # … with 27 more rows
…
