Data manipulation with dplyr
…
This dataset contains data from an experiment on the cold tolerance of the grass species Echinochloa crus-galli. The CO2 uptake of six plants from Quebec and six plants from Mississippi was measured at several levels of ambient CO2 concentration. Half the plants of each type were chilled overnight before the experiment was conducted.

Messages from tidylog

To assist in learning dplyr (and more packages coming soon), we will also be using the (pre-installed for you) library, tidylog. As you can see in the setup R chunk of this document, tidylog has been loaded for you. This fairly amazing library provides you with direct feedback about what goes on under the hood of tidyverse operations.

## Obtain all rows where the plant is from Quebec
CO2_tibble %>%
  filter(Type == "Quebec")

## filter: removed 42 rows (50%), 42 rows remaining

## # A tibble: 42 x 5
##    Plant Type   Treatment   conc uptake
##    <ord> <fct>  <fct>      <dbl>  <dbl>
##  1 Qn1   Quebec nonchilled    95   16  
##  2 Qn1   Quebec nonchilled   175   30.4
##  3 Qn1   Quebec nonchilled   250   34.8
##  4 Qn1   Quebec nonchilled   350   37.2
##  5 Qn1   Quebec nonchilled   500   35.3
##  6 Qn1   Quebec nonchilled   675   39.2
##  7 Qn1   Quebec nonchilled  1000   39.7
##  8 Qn2   Quebec nonchilled    95   13.6
##  9 Qn2   Quebec nonchilled   175   27.3
## 10 Qn2   Quebec nonchilled   250   37.1
## #  with 32 more rows
…
