HW7 Instructions
…
Then, practice using n() by taking these steps:

Remove the plant_id column with select()

Re-create the plant_id column with mutate() and n()

Pivot as we have been doing to create the final wide version of the dataset

1.6. Use the built-in msleep dataset. Create a new version of the dataframe that looks like this:

Hint: First use select to subset the data to only the columns you need, and then pivot.

## # A tibble: 166 x 3
##    name                       taxonomic_level group       
##    <chr>                      <chr>           <chr>       
##  1 Cheetah                    genus           Acinonyx    
##  2 Cheetah                    order           Carnivora   
##  3 Owl monkey                 genus           Aotus       
##  4 Owl monkey                 order           Primates    
##  5 Mountain beaver            genus           Aplodontia  
##  6 Mountain beaver            order           Rodentia    
##  7 Greater short-tailed shrew genus           Blarina     
##  8 Greater short-tailed shrew order           Soricomorpha
##  9 Cow                        genus           Bos         
## 10 Cow                        order           Artiodactyla
## #  with 156 more rows

1.7. Again use the built-in msleep dataset and create a new version that looks like this:

Hint: There are no NAs in my final version output! You should drop all NAs at the end.

## # A tibble: 139 x 3
##    name                       measurement    weight
##    <chr>                      <chr>           <dbl>
##  1 Cheetah                    bodywt       50      
##  2 Owl monkey                 brainwt       0.0155 
##  3 Owl monkey                 bodywt        0.48   
##  4 Mountain beaver            bodywt        1.35   
##  5 Greater short-tailed shrew brainwt       0.00029
##  6 Greater short-tailed shrew bodywt        0.019  
##  7 Cow                        brainwt       0.423  
##  8 Cow                        bodywt      600      
##  9 Three-toed sloth           bodywt        3.85   
## 10 Northern fur seal          bodywt       20.5    
## #  with 129 more rows

1.8. Modify your code from the previous question so the final dataframe looks like this. You MUST use rename() as part of your code.

Hint: Rename columns of interest first, and then pivot them.

Hint 2: Again note the lack of NAs!

## # A tibble: 139 x 3
##    name                       measurement    weight
##    <chr>                      <chr>           <dbl>
##  1 Cheetah                    body_mass    50      
##  2 Owl monkey                 brain_mass    0.0155 
##  3 Owl monkey                 body_mass     0.48   
##  4 Mountain beaver            body_mass     1.35   
##  5 Greater short-tailed shrew brain_mass    0.00029
##  6 Greater short-tailed shrew body_mass     0.019  
##  7 Cow                        brain_mass    0.423  
##  8 Cow                        body_mass   600      
##  9 Three-toed sloth           body_mass     3.85   
## 10 Northern fur seal          body_mass    20.5    
## #  with 129 more rows
…
In order to create this plot, you actually need to pivot TWICE:

First, use pivot_wider() just as you did in question 3.4 (hint! you should have used that function in 3.4!)

Then, use pivot_longer() to long-pivot all point columns EXCEPT FOR aroma. The data you end up plotting should be structured like this.

## # A tibble: 12,042 x 4
##    unique_coffee aroma points_category points
##            <int> <dbl> <chr>            <dbl>
##  1             1  8.67 flavor            8.83
##  2             1  8.67 aftertaste        8.67
##  3             1  8.67 acidity           8.75
##  4             1  8.67 body              8.5 
##  5             1  8.67 balance           8.42
##  6             1  8.67 uniformity       10   
##  7             1  8.67 clean_cup        10   
##  8             1  8.67 sweetness        10   
##  9             1  8.67 cupper_points     8.75
## 10             2  8.75 flavor            8.67
## #  with 12,032 more rows
…
