Introduction to logistic regression
…
---

## Visualizing the model: Prepare the data

```r
tibble(x = fit$linear.predictors, 
       y = fit$fitted.values, 
       # Helps to use the ORIGINAL biopsy version so that outcome is "malignant"/"benign"
       outcome = biopsy$outcome) -> fit_tibble

fit_tibble
## # A tibble: 683 x 3
##        x       y outcome  
##    <dbl>   <dbl> <chr>    
##  1 -4.09 0.0164  benign   
##  2  2.03 0.884   benign   
##  3 -4.77 0.00838 benign   
##  4  1.38 0.799   benign   
##  5 -3.94 0.0190  benign   
##  6 10.6  1.00    malignant
##  7 -2.73 0.0609  benign   
##  8 -5.35 0.00472 benign   
##  9 -4.49 0.0110  benign   
## 10 -5.09 0.00612 benign   
## # … with 673 more rows
```
…
---

## Caculating performance measures

+ Requires a *threshold* to call malignant/benign outcomes. 
+ For an example, let's say >=0.75 is malignant (success). <0.75 is benign (failure)
+ Accuracy: `\(\frac{TP + TN}{TP + TN + FP + FN}\)`

```r
threshold <- 0.75
fit_tibble %>% 
* rename(truth = outcome) %>%
  mutate(pred = if_else(y >= threshold, "P", "N")) 
## # A tibble: 683 x 4
##        x       y truth     pred 
##    <dbl>   <dbl> <chr>     <chr>
##  1 -4.09 0.0164  benign    N    
##  2  2.03 0.884   benign    P    
##  3 -4.77 0.00838 benign    N    
##  4  1.38 0.799   benign    P    
##  5 -3.94 0.0190  benign    N    
##  6 10.6  1.00    malignant P    
##  7 -2.73 0.0609  benign    N    
##  8 -5.35 0.00472 benign    N    
##  9 -4.49 0.0110  benign    N    
## 10 -5.09 0.00612 benign    N    
## # … with 673 more rows
```
---
`\(Accuracy = \frac{TP + TN}{TP + TN + FP + FN}\)`

```r
threshold <- 0.75
fit_tibble %>% 
  rename(truth = outcome) %>% 
  mutate(pred = if_else(y >= threshold, "P", "N")) %>%
  mutate(classif = case_when(truth == "malignant" & pred == "P" ~ "TP", 
                             truth == "malignant" & pred == "N" ~ "FN",
                             truth == "benign"    & pred == "N" ~ "TN",
                             truth == "benign"    & pred == "P" ~ "FP")) -> model_classif

model_classif
## # A tibble: 683 x 5
##        x       y truth     pred  classif
##    <dbl>   <dbl> <chr>     <chr> <chr>  
##  1 -4.09 0.0164  benign    N     TN     
##  2  2.03 0.884   benign    P     FP     
##  3 -4.77 0.00838 benign    N     TN     
##  4  1.38 0.799   benign    P     FP     
##  5 -3.94 0.0190  benign    N     TN     
##  6 10.6  1.00    malignant P     TP     
##  7 -2.73 0.0609  benign    N     TN     
##  8 -5.35 0.00472 benign    N     TN     
##  9 -4.49 0.0110  benign    N     TN     
## 10 -5.09 0.00612 benign    N     TN     
## # … with 673 more rows
```
…
