EXAMPLE PROJECT
…
EXAMPLE PROJECT

Data Science for Biologists, Fall 2020

Stephanie J. Spielman

Introduction

In this project, I analyze a dataset of coffee ratings from the #tidytuesday repository. This dataset contains information about coffees and their ratings from around the world:

coffee_ratings <- readr::read_csv('https://raw.githubusercontent.com/rfordatascience/tidytuesday/master/data/2020/2020-07-07/coffee_ratings.csv')

coffee_ratings

## # A tibble: 1,339 x 43
##    total_cup_points species owner country_of_orig farm_name lot_number mill 
##               <dbl> <chr>   <chr> <chr>            <chr>     <chr>      <chr>
##  1             90.6 Arabica meta Ethiopia         "metad p <NA>       meta
##  2             89.9 Arabica meta Ethiopia         "metad p <NA>       meta
##  3             89.8 Arabica grou Guatemala        "san mar <NA>       <NA> 
##  4             89   Arabica yidn Ethiopia         "yidneka <NA>       wole
##  5             88.8 Arabica meta Ethiopia         "metad p <NA>       meta
##  6             88.8 Arabica ji-a Brazil            <NA>     <NA>       <NA> 
##  7             88.8 Arabica hugo Peru              <NA>     <NA>       hvc  
##  8             88.7 Arabica ethi Ethiopia         "aolme"   <NA>       c.p.
##  9             88.4 Arabica ethi Ethiopia         "aolme"   <NA>       c.p.
## 10             88.2 Arabica diam Ethiopia         "tulla c <NA>       tull
## #  with 1,329 more rows, and 36 more variables: ico_number <chr>,
## #   company <chr>, altitude <chr>, region <chr>, producer <chr>,
## #   number_of_bags <dbl>, bag_weight <chr>, in_country_partner <chr>,
## #   harvest_year <chr>, grading_date <chr>, owner_1 <chr>, variety <chr>,
## #   processing_method <chr>, aroma <dbl>, flavor <dbl>, aftertaste <dbl>,
## #   acidity <dbl>, body <dbl>, balance <dbl>, uniformity <dbl>,
## #   clean_cup <dbl>, sweetness <dbl>, cupper_points <dbl>, moisture <dbl>,
## #   category_one_defects <dbl>, quakers <dbl>, color <chr>,
## #   category_two_defects <dbl>, expiration <chr>, certification_body <chr>,
…
To what extent does a coffees processing method explain its flavor rating?

Methods

First, I prepare the data to model.

# prepare data to model
coffee_ratings %>%
  select(flavor, processing_method) %>%
  drop_na() -> coffee_ratings_model_data

# display data
coffee_ratings_model_data

## # A tibble: 1,169 x 2
##    flavor processing_method
##     <dbl> <chr>            
##  1   8.83 Washed / Wet     
##  2   8.67 Washed / Wet     
##  3   8.58 Natural / Dry    
##  4   8.5  Washed / Wet     
##  5   8.42 Natural / Dry    
##  6   8.5  Washed / Wet     
##  7   8.58 Natural / Dry    
##  8   8.67 Natural / Dry    
##  9   8.42 Washed / Wet     
## 10   8.67 Washed / Wet     
## #  with 1,159 more rows
…
