Stats and geoms, and some best coding practices
…
---

## Know your namespace

.pull-left[

```r
diamonds %>%
  select(cut)
## # A tibble: 53,940 x 1
##    cut      
##    <ord>    
##  1 Ideal    
##  2 Premium  
##  3 Good     
##  4 Premium  
##  5 Good     
##  6 Very Good
##  7 Very Good
##  8 Very Good
##  9 Fair     
## 10 Very Good
## # … with 53,930 more rows
```
…
---

## For safety, be explicit with your namespace

```r
diamonds %>%
* dplyr::select(cut)
## # A tibble: 53,940 x 1
##    cut      
##    <ord>    
##  1 Ideal    
##  2 Premium  
##  3 Good     
##  4 Premium  
##  5 Good     
##  6 Very Good
##  7 Very Good
##  8 Very Good
##  9 Fair     
## 10 Very Good
## # … with 53,930 more rows
```
…
---

## Assertions should be sufficiently general

What if I want the mean of diamond `price` and/or `carat`?

```r
diamonds %>%
  dplyr::select(price, carat)
## # A tibble: 53,940 x 2
##    price carat
##    <int> <dbl>
##  1   326 0.23 
##  2   326 0.21 
##  3   327 0.23 
##  4   334 0.290
##  5   335 0.31 
##  6   336 0.24 
##  7   336 0.24 
##  8   337 0.26 
##  9   337 0.22 
## 10   338 0.23 
## # … with 53,930 more rows
```
…
