Introduction to Linear Modeling
…
# Gives R^2 (and some other values, stay tuned!!!) in tidy form
broom::glance(model_fit)

## # A tibble: 1 x 11
##   r.squared adj.r.squared sigma statistic  p.value    df logLik   AIC   BIC
##       <dbl>         <dbl> <dbl>     <dbl>    <dbl> <int>  <dbl> <dbl> <dbl>
## 1     0.259         0.254  1.28      46.9 2.45e-10     2  -225.  456.  465.
## #  with 2 more variables: deviance <dbl>, df.residual <int>

## Gives a whoooole bunch of under-the-hood info in tidy form - tacked onto the data itself!!!
broom::augment(model_fit)

## # A tibble: 136 x 9
##    Weight Skull_Length .fitted .se.fit  .resid    .hat .sigma .cooksd .std.resid
##     <dbl>        <dbl>   <dbl>   <dbl>   <dbl>   <dbl>  <dbl>   <dbl>      <dbl>
##  1   24.5         31.2    25.1   0.124 -0.620  0.00942   1.28 1.13e-3    -0.488 
##  2   26.9         30.8    24.7   0.163  2.21   0.0162    1.27 2.51e-2     1.74  
##  3   26.9         30.6    24.5   0.187  2.42   0.0214    1.26 4.02e-2     1.92  
##  4   24.3         31.7    25.7   0.111 -1.35   0.00759   1.28 4.34e-3    -1.06  
##  5   24.1         31.5    25.4   0.110 -1.34   0.00743   1.28 4.16e-3    -1.05  
##  6   26.5         31.8    25.8   0.115  0.740  0.00812   1.28 1.39e-3     0.582 
##  7   24.6         31.1    25.0   0.132 -0.413  0.0107    1.28 5.73e-4    -0.326 
##  8   24.2         31.4    25.3   0.113 -1.13   0.00780   1.28 3.12e-3    -0.892 
##  9   23.6         29.8    23.6   0.297 -0.0273 0.0541    1.28 1.38e-5    -0.0220
## 10   26.2         32      26.0   0.128  0.227  0.0101    1.28 1.62e-4     0.179 
## #  with 126 more rows
…
